{
    "cordova-plugin-whitelist": {
        "source": {
            "type": "registry",
            "id": "cordova-plugin-whitelist@1"
        },
        "is_top_level": true,
        "variables": {}
    },
    "org.apache.cordova.device": {
        "source": {
            "type": "registry",
            "id": "org.apache.cordova.device"
        },
        "is_top_level": true,
        "variables": {}
    },
    "org.apache.cordova.vibration": {
        "source": {
            "type": "registry",
            "id": "org.apache.cordova.vibration"
        },
        "is_top_level": true,
        "variables": {}
    },
    "org.apache.cordova.media": {
        "source": {
            "type": "registry",
            "id": "org.apache.cordova.media"
        },
        "is_top_level": true,
        "variables": {}
    },
    "org.apache.cordova.file": {
        "source": {
            "type": "registry",
            "id": "org.apache.cordova.file"
        },
        "is_top_level": false,
        "variables": {}
    },
    "com.phonegap.plugins.PushPlugin": {
        "source": {
            "type": "git",
            "url": "https://github.com/phonegap-build/PushPlugin.git",
            "subdir": "."
        },
        "is_top_level": true,
        "variables": {}
    },
    "de.appplant.cordova.plugin.local-notification": {
        "source": {
            "type": "git",
            "url": "https://github.com/katzer/cordova-plugin-local-notifications.git",
            "subdir": "."
        },
        "is_top_level": true,
        "variables": {}
    },
    "cordova-plugin-device": {
        "source": {
            "type": "registry",
            "id": "cordova-plugin-device"
        },
        "is_top_level": false,
        "variables": {}
    },
    "cordova-plugin-registerusernotificationsettings": {
        "source": {
            "type": "registry",
            "id": "cordova-plugin-registerusernotificationsettings"
        },
        "is_top_level": false,
        "variables": {}
    }
}